{
  "associatedLayout": "New scene",
  "lastChangeTimeStamp": 1383152000,
  "name": "GUIManagement",
  "events": [
    {
      "disabled": false,
      "folded": false,
      "type": "BuiltinCommonInstructions::Standard",
      "conditions": [
        {
          "type": {
            "inverted": false,
            "value": "KeyPressed"
          },
          "parameters": [
            "",
            "n"
          ],
          "subInstructions": []
        },
        {
          "type": {
            "inverted": false,
            "value": "Distance"
          },
          "parameters": [
            "Kyle",
            "GenericNPC",
            "100",
            ""
          ],
          "subInstructions": []
        }
      ],
      "actions": [
        {
          "type": {
            "inverted": false,
            "value": "Create"
          },
          "parameters": [
            "",
            "DialougeBox",
            "GenericNPC.X()+200",
            "GenericNPC.Y()+200",
            ""
          ],
          "subInstructions": []
        }
      ],
      "events": []
    },
    {
      "disabled": false,
      "folded": false,
      "type": "BuiltinCommonInstructions::Standard",
      "conditions": [
        {
          "type": {
            "inverted": false,
            "value": "KeyPressed"
          },
          "parameters": [
            "",
            "b"
          ],
          "subInstructions": []
        }
      ],
      "actions": [
        {
          "type": {
            "inverted": false,
            "value": "Delete"
          },
          "parameters": [
            "DialougeBox",
            ""
          ],
          "subInstructions": []
        }
      ],
      "events": []
    }
  ]
}